{
  "utterances": [
    "interested in honors academy in masters phase",
    "grad honors ",
    "graduate honors information",
    "I'm interested in honors for graduate students"
  ],
  "slots": []
}