[
  {
    "id": "builtin_single-choice-elJyV5",
    "formData": {
      "text": "Are you looking for Bachelors or Masters Honors track?",
      "choices": [
        {
          "title": "Bachelors",
          "value": "Bachelors"
        },
        {
          "title": "Masters",
          "value": "Masters"
        }
      ],
      "typing": true
    },
    "createdBy": "admin",
    "createdOn": "2018-05-17T14:29:04.897Z",
    "modifiedOn": "2019-01-20T20:26:25.408Z"
  },
  {
    "id": "builtin_single-choice-RO~x3O",
    "formData": {
      "text": "What program type do you want?",
      "choices": [
        {
          "title": "Bachelors",
          "value": "Bachelors"
        },
        {
          "title": "Masters",
          "value": "Masters"
        }
      ],
      "typing": true
    },
    "createdBy": "admin",
    "createdOn": "2019-01-21T13:13:59.012Z",
    "modifiedOn": "2019-01-21T13:13:59.012Z"
  },
  {
    "id": "builtin_single-choice-SoHsEJ",
    "formData": {
      "text": "Where did you get your degree?",
      "choices": [
        {
          "title": "Netherlands",
          "value": "Netherlands"
        },
        {
          "title": "Spain",
          "value": "Spain"
        },
        {
          "title": "Bulgaria",
          "value": "Bulgaria"
        },
        {
          "title": "China ",
          "value": "China"
        }
      ],
      "typing": true
    },
    "createdBy": "admin",
    "createdOn": "2019-01-21T13:32:02.830Z",
    "modifiedOn": "2019-01-21T13:41:13.292Z"
  },
  {
    "id": "builtin_single-choice-8Puwy5",
    "formData": {
      "text": "What program are you interested in?",
      "choices": [
        {
          "title": "Data Science",
          "value": "Data Science"
        },
        {
          "title": "Computer Science and Engineering",
          "value": "Computer Science and Engineering"
        },
        {
          "title": "Industrial Design",
          "value": "Industrial Desgn"
        }
      ],
      "typing": true
    },
    "createdBy": "admin",
    "createdOn": "2019-01-21T13:51:43.421Z",
    "modifiedOn": "2019-01-21T14:12:03.472Z"
  }
]